0ab7e4217b2702316adceabd4c1dfca0250dbe33c22e08c98b433939207edfc0 /com/cloudbees/cloudbees-oss-parent/1/cloudbees-oss-parent-1.pom
e6509db2167c983d254d3530c66a060443e91a6ca38df9fdc4ef2a88ad813fa5 /com/cloudbees/diff4j/1.1/diff4j-1.1.jar
a09a4ac520f9ec5ccd16195272fd8ed4c667285f9e129da5acf633bb21a7d174 /com/cloudbees/diff4j/1.1/diff4j-1.1.pom
754184022345800c2d066eceeaf2f7a88a7c2aaeae23eb1c76ef598854aa9157 /com/fasterxml/jackson/core/jackson-core/2.1.3/jackson-core-2.1.3.jar
cc3bfcc34a29c041e7cafc05ed6f0c3ebf8a7dcf812489a64f4c37f4f5279adf /com/fasterxml/jackson/core/jackson-core/2.1.3/jackson-core-2.1.3.pom
a30a3f89fbbea23deb5290e832eb0d12a8171ae8ba4461af2b936ed0245ee697 /com/fasterxml/oss-parent/4/oss-parent-4.pom
4cad4ee2f1c379fa1f6496912fe026d8a4f2febf0a140ff867206b00a22f988f /com/github/abrarsyed/jastyle/jAstyle/1.3/jAstyle-1.3.jar
cd62bdfd946618c26b49451084361edf79cd6ddb3eae1a485ecb05319295896d /com/github/abrarsyed/jastyle/jAstyle/1.3/jAstyle-1.3.pom
33b3d79f3e27d33c46411ab7b7d81f43f12756e18c8936063f18b1a950a5f84b /com/github/jengelman/gradle/plugins/shadow/1.2.3/shadow-1.2.3.jar
f00facfc855e7d5517fc57553614b4690e61df9ab44f6e93ff583ae201b5a3aa /com/github/jengelman/gradle/plugins/shadow/1.2.3/shadow-1.2.3.pom
27fc3b7f0436f532c9d798dbc006d7e0b9b7c9b436f8d977f122665c633e9892 /com/github/johni0702/gradle-ecj-plugin/795736c/gradle-ecj-plugin-795736c.jar
f98b3e07c6b6a32dd6f9f70f5cef4ac9be42a9a6c850ceb8f33767da94706635 /com/github/johni0702/gradle-ecj-plugin/795736c/gradle-ecj-plugin-795736c.pom
11f4032947acc6ef1be538031cb0ea4d2fdfd50d97a0391af27bff3274a239f2 /com/github/johni0702/gradle-reproducible-builds-plugin/a524ada/gradle-reproducible-builds-plugin-a524ada.jar
03e3dff7f9b3ac6cd3b87684fd36a2f6996a4b164a2f8fab9c22c01cb7bfb84b /com/github/johni0702/gradle-reproducible-builds-plugin/a524ada/gradle-reproducible-builds-plugin-a524ada.pom
75ccc0e24d37ed5b8916e1bcffad1e067c2b1cfa21b635287f968db5c3c1963a /com/github/jponge/lzma-java/1.3/lzma-java-1.3.jar
fbcba81b21a8bc3c0761e4798fa05285444b43d681c03c9af49f9b2e1ecb0184 /com/github/jponge/lzma-java/1.3/lzma-java-1.3.pom
04d7ceaf1e83006d2d93518884353a7856399669332d1174f2572e3d6ec03cd3 /com/github/replaymod/ReplayStudio/a2168ca/ReplayStudio-a2168ca.jar
0703ef825f3e3cd0943f6955fd12da923eb255ed94fe421cbb207b2dcfd61ba4 /com/github/replaymod/ReplayStudio/a2168ca/ReplayStudio-a2168ca.pom
c6ebd74cd6108b8c372c95b842725ee5bd6d3303ba26cb00f18bc92f80b47956 /com/github/tony19/named-regexp/0.2.3/named-regexp-0.2.3.jar
7cdd89a892927998beab59398ef073232588f6e83e411cf4f0905833bf300487 /com/github/tony19/named-regexp/0.2.3/named-regexp-0.2.3.pom
47c625c83a8cf97b8bbdff2acde923ff8fd3174e62aabcfc5d1b86692594ffba /com/google/api-client/google-api-client/1.22.0/google-api-client-1.22.0.jar
83175461277124a08d23d9df647912771276fed44ce60ff03847b51c98bf7459 /com/google/api-client/google-api-client/1.22.0/google-api-client-1.22.0.pom
d68647ba10cfa33e0b6e538c704723229932795d5ee495288cec46a6156c5891 /com/google/api-client/google-api-client-gson/1.20.0/google-api-client-gson-1.20.0.jar
383d5b31bfa2b5599de972dfc3d77750b8015c9496f66c591d92ca778a23dd4e /com/google/api-client/google-api-client-gson/1.20.0/google-api-client-gson-1.20.0.pom
df4f423f33f467d248e51deb555404771f7bc41430b2d4d1e49966c79c0b207b /com/google/api-client/google-api-client-java6/1.20.0/google-api-client-java6-1.20.0.jar
766995ae6c9240e1c77a68b3347706506ecde95aa8196ddd4ed567ce8df8cceb /com/google/api-client/google-api-client-java6/1.20.0/google-api-client-java6-1.20.0.pom
d8e9ec26a01cc19c530ab781cc71185acb9f9d576716e3d585a1d4f12f2089c8 /com/google/api-client/google-api-client-parent/1.20.0/google-api-client-parent-1.20.0.pom
2bc283b1247550e6e8401d97dc7f1ac2d5b17382b9984df011d9a3564fe632ae /com/google/api-client/google-api-client-parent/1.22.0/google-api-client-parent-1.22.0.pom
88debb16c533600c3b0290a088f2de3b3a8318ff86ebe0bdbcefeab0a0eafb9e /com/google/apis/google-api-services-youtube/v3-rev178-1.22.0/google-api-services-youtube-v3-rev178-1.22.0.jar
4dad29307c34e923ebb6d29e2c265850a0f0b691c7a63384279aa8353eae28b9 /com/google/apis/google-api-services-youtube/v3-rev178-1.22.0/google-api-services-youtube-v3-rev178-1.22.0.pom
905721a0eea90a81534abb7ee6ef4ea2e5e645fa1def0a5cd88402df1b46c9ed /com/google/code/findbugs/jsr305/1.3.9/jsr305-1.3.9.jar
feab9191311c3d7aeef2b66d6064afc80d3d1d52d980fb07ae43c78c987ba93a /com/google/code/findbugs/jsr305/1.3.9/jsr305-1.3.9.pom
1e7f53fa5b8b5c807e986ba335665da03f18d660802d8bf061823089d1bee468 /com/google/code/findbugs/jsr305/2.0.1/jsr305-2.0.1.jar
02c12c3c2ae12dd475219ff691c82a4d9ea21f44bc594a181295bf6d43dcfbb0 /com/google/code/findbugs/jsr305/2.0.1/jsr305-2.0.1.pom
8cc1f0813a186079f82d300a43156bdf852a88008f4f1a1fa71e788fb3b9a86d /com/google/code/google-collections/google-collect/snapshot-20080530/google-collect-snapshot-20080530.jar
7d131d6a082a33363bdfbf55d2fee2219d9bc8d1c455cc3f7c6403cf2a4496a5 /com/google/code/google-collections/google-collect/snapshot-20080530/google-collect-snapshot-20080530.pom
35c94198255e95f6f11501eb4b3d43a5276bfdd142ab7c904722e69bff51f69e /com/google/code/gson/gson/2.1/gson-2.1.jar
894da89d477e805389c9df1d6fa8bd552285aed56a399d5749213520a7c74054 /com/google/code/gson/gson/2.1/gson-2.1.pom
c0328cd07ca9e363a5acd00c1cf4afe8cf554bd6d373834981ba05cebec687fb /com/google/code/gson/gson/2.2.4/gson-2.2.4.jar
ae984d5d19894ce6dc4689866eaa12f8fc31409113e60ee3b44853b8ac4fd380 /com/google/code/gson/gson/2.2.4/gson-2.2.4.pom
4838f4f29a027522363cef1bcda1b48808880b0de4953fab6db4121ee27b649b /com/googlecode/jarjar/jarjar/1.1/jarjar-1.1.jar
be4f53c0bc04da4e3d6c65c8f3243d1ea4135e35c7d7dda88af1c582687263d7 /com/googlecode/jarjar/jarjar/1.1/jarjar-1.1.pom
d1296fa8926f71743be61cb4bfdac2ac3deb9ffe1a4948b1f293cb7a1bdb1800 /com/googlecode/javaewah/JavaEWAH/0.5.6/JavaEWAH-0.5.6.jar
fa5c2d7edcd57c6e1b402773dc32a180f82c111af44bfc2d483a2c7be1862e8f /com/googlecode/javaewah/JavaEWAH/0.5.6/JavaEWAH-0.5.6.pom
ddbbf392f8e61f770a509a49aed5f32ead19768283b4b512c626e09e1ba5cc46 /com/googlecode/mp4parser/isoparser/1.1.7/isoparser-1.1.7.jar
6890ebacb23d3ab51a5751a830f5269b7e8fdd19d08b7e055bc739f62b4bd174 /com/googlecode/mp4parser/isoparser/1.1.7/isoparser-1.1.7.pom
8c36a80ea613d0b6b8040a17cf837c5bbe3677bc1b06a058a6c174fdb787ebbc /com/google/guava/guava/17.0/guava-17.0.jar
2a0d16010d3825c732aeab1d25f181074945063d8f76c28004e7d423d66cb75b /com/google/guava/guava/17.0/guava-17.0.pom
d664fbfc03d2e5ce9cab2a44fb01f1d0bf9dfebeccc1a473b1f9ea31f79f6f99 /com/google/guava/guava/18.0/guava-18.0.jar
e743d61d76f76b5dc060d6f7914fdd41c4418b3529062556920116a716719836 /com/google/guava/guava/18.0/guava-18.0.pom
58d4cc2e05ebb012bbac568b032f75623be1cb6fb096f3c60c72a86f7f057de4 /com/google/guava/guava/19.0/guava-19.0.jar
addc064da7f1077fdf4dc90e5aaa887cd790850d1b74fe2e6e25d5f78551ac63 /com/google/guava/guava/19.0/guava-19.0.pom
59bf456547b6dda3ced968cb56f7f2d3e14474e2de2960a32c47e31c1e456c61 /com/google/guava/guava-jdk5/17.0/guava-jdk5-17.0.jar
f8c152627813d45bc4e7cc17ad6ed6a649a0231ae819ffb8e05d19b205a3db66 /com/google/guava/guava-jdk5/17.0/guava-jdk5-17.0.pom
9fba53585551d3c775179de859760a73c4beab407dfde16b551a09a87b50532a /com/google/guava/guava-parent/17.0/guava-parent-17.0.pom
a4accc8895e757f6a33f087e4fd0b661c5638ffe5e0728f298efe7d80551b166 /com/google/guava/guava-parent/18.0/guava-parent-18.0.pom
3b76ff43ecdf10f74da36e4aae2b470c9d063e053c5ca026f5512ae94f1c3e10 /com/google/guava/guava-parent/19.0/guava-parent-19.0.pom
5a9606bc27632956b3c11df887e9b3e785854068aaa4e0808ed5660f60b1fb6f /com/google/guava/guava-parent-jdk5/17.0/guava-parent-jdk5-17.0.pom
f744c79f198e53deea4cd311f9135a568ab67052804d80fd3d60b0385644cf65 /com/google/http-client/google-http-client/1.20.0/google-http-client-1.20.0.pom
f88ffa329ac52fb4f2ff0eb877ef7318423ac9b791a107f886ed5c7a00e77e11 /com/google/http-client/google-http-client/1.22.0/google-http-client-1.22.0.jar
30e7611df40360bdc24325caaa2f7888e847680f2e64e579c28c87a53e5bb422 /com/google/http-client/google-http-client/1.22.0/google-http-client-1.22.0.pom
cc144c70d40acf7c6e6f773ac19a2ac6e3ed9830d8e33e32421ff21a91450994 /com/google/http-client/google-http-client-gson/1.20.0/google-http-client-gson-1.20.0.jar
9b292239a52300b687940164987f0fccc1132049e774d8d90274998e58949f7c /com/google/http-client/google-http-client-gson/1.20.0/google-http-client-gson-1.20.0.pom
45b1e34b2dcef5cb496ef25a1223d19cf102b8c2ea4abf96491631b2faf4611c /com/google/http-client/google-http-client-jackson2/1.22.0/google-http-client-jackson2-1.22.0.jar
184c3aaa66f32be7bf592caab362becd10a80b15b077c3ebe9ae9fa9d387f41a /com/google/http-client/google-http-client-jackson2/1.22.0/google-http-client-jackson2-1.22.0.pom
5c592d663ac30387eb30551a20cbd401bde859095f94ec2bef8ed2a4acf7a8f1 /com/google/http-client/google-http-client-parent/1.20.0/google-http-client-parent-1.20.0.pom
3927309767100e548d1f5c20e150d75716e03a3d8a1a1b970c8a75fbddae072e /com/google/http-client/google-http-client-parent/1.22.0/google-http-client-parent-1.22.0.pom
f279a8172e7671c9dcd896850aaa6ce85e1d93e5bc0a10fd7c7a6efbf76f60db /com/google/oauth-client/google-oauth-client/1.20.0/google-oauth-client-1.20.0.pom
a4c56168b3e042105d68cf136e40e74f6e27f63ed0a948df966b332678e19022 /com/google/oauth-client/google-oauth-client/1.22.0/google-oauth-client-1.22.0.jar
52a2b2c1a4365668545134157ee7bb141c6b537caa29a4e51f3228ce0bbbeaf9 /com/google/oauth-client/google-oauth-client/1.22.0/google-oauth-client-1.22.0.pom
3149ae4fa222c7e804c5b7bc0d044702bc6bb8309b5ed94f6d350a5d4d657fc9 /com/google/oauth-client/google-oauth-client-java6/1.20.0/google-oauth-client-java6-1.20.0.jar
61233bbb437dc91504076a644ce77b1066f679d1252362d08de67d296c404cf0 /com/google/oauth-client/google-oauth-client-java6/1.20.0/google-oauth-client-java6-1.20.0.pom
daabf9d4e35d4015c2c917982463572856a5c8d7fa718e94edb2b6b114a2a8a2 /com/google/oauth-client/google-oauth-client-jetty/1.20.0/google-oauth-client-jetty-1.20.0.jar
2c594b64206b24c2ec9506769cac5c637346152c7822f0337721776c6eb092db /com/google/oauth-client/google-oauth-client-jetty/1.20.0/google-oauth-client-jetty-1.20.0.pom
374fb28a2c74f92999de4d843f788838f38fd89b570c95813513546a0e7ae3ca /com/google/oauth-client/google-oauth-client-parent/1.20.0/google-oauth-client-parent-1.20.0.pom
2e7acb933f8c1b801b78925e4d22c32040a414dc7246bfdb777d8ad78404fa66 /com/google/oauth-client/google-oauth-client-parent/1.22.0/google-oauth-client-parent-1.22.0.pom
bbc21cab2e0b0c76c9977fdf8b80c311788094d81e6910a2a6e63d80910102c7 /com/gradle/publish/plugin-publish-plugin/0.9.1/plugin-publish-plugin-0.9.1.jar
89aa507536b0a93d8c9d3087d738255eefffc002cefa255ebdbd6891b8165447 /com/gradle/publish/plugin-publish-plugin/0.9.1/plugin-publish-plugin-0.9.1.pom
147592c5eb8e11fc8394125954f877acf25918bae13aa210c2825aefc3030ed8 /com/ibm/icu/icu4j-core-mojang/51.2/icu4j-core-mojang-51.2.jar
06b382efe9d60474aa3df7f4851397b3ae0c4f142567f0fc66a8fa2706a665e4 /com/ibm/icu/icu4j-core-mojang/51.2/icu4j-core-mojang-51.2.pom
48cd629c3081dff4d8c35e7da4efb3bcc4ed4b35c8a7e8198d5c30e0312bd912 /com/jcraft/jsch/0.1.46/jsch-0.1.46.jar
eb60cec1e570efad3d750afd9a86b763dba49e47c3c106a599c05e708260efc4 /com/jcraft/jsch/0.1.46/jsch-0.1.46.pom
2c149735a093b6c65a27db760896ad5c5b06e29100bb8969937667784fef4ba0 /com/mojang/authlib/1.5.16/authlib-1.5.16.jar
d05175230d79f518b5c4664d24e3d115f5f3888e3806f3b6076cd0b4943e6ca6 /com/mojang/authlib/1.5.16/authlib-1.5.16.pom
ce7a9c86ebebf30b89929026f4a0a3c58ce0f4d47937d6dc086ae4fd0c77544a /com/mojang/authlib/1.5.21/authlib-1.5.21.jar
d59283c7303b42e416518d8f5c265895295c11690fd8d36079f1a04c6a56b17c /com/mojang/authlib/1.5.21/authlib-1.5.21.pom
3120fd24c09ab9bc088cb9c1eb2065be86718608450fdbc27b5d371729a619cb /com/mojang/netty/1.6/netty-1.6.jar
568cc3fad81e5e389bad0012a07eca5db073e287200c6c9cb02caf3dc489e9f6 /com/mojang/netty/1.6/netty-1.6.pom
4a6a90ed956609d6cd3a7f84622fcac87d22e9a5d4858c6d1e965af860d07a63 /com/mojang/realms/1.7.59/realms-1.7.59.jar
5f414ea81dc3e809603844498228bba4dfd5d0fa6f1236b8a5553e9c74f9e36d /com/mojang/realms/1.7.59/realms-1.7.59.pom
e7cd8951956d349b568b7ccfd4f5b2529a8c113e67c32b028f52ffda371259d9 /commons-cli/commons-cli/1.2/commons-cli-1.2.jar
18f3e92076e08c2fde48317025098e9f6baaa85f6912eb43f2d7e68d570e4561 /commons-cli/commons-cli/1.2/commons-cli-1.2.pom
1bafd2ece2e88db4cdf835a7f8f0de65fab5b1147977a5dcc59b7c1b8c6f5080 /commons-codec/commons-codec/1.3/commons-codec-1.3.jar
d157e34244e884dd91fa01921ca84372e11f7bb08fedb5d456c0670c28054636 /commons-codec/commons-codec/1.3/commons-codec-1.3.pom
54b34e941b8e1414bd3e40d736efd3481772dc26db3296f6aa45cec9f6203d86 /commons-codec/commons-codec/1.6/commons-codec-1.6.jar
a06e35d3fff3a6b813d94894ebf3e498f9540c864c5b39ae783907e3a6c72889 /commons-codec/commons-codec/1.6/commons-codec-1.6.pom
ad19d2601c3abf0b946b5c3a4113e226a8c1e3305e395b90013b78dd94a723ce /commons-codec/commons-codec/1.9/commons-codec-1.9.jar
e5efcf039cd909688c201dc5479b144fd6f01f0e40252b7fc5e7d2e1b5c07990 /commons-codec/commons-codec/1.9/commons-codec-1.9.pom
a7f713593007813bf07d19bd1df9f81c86c0719e9a0bb2ef1b98b78313fc940d /commons-io/commons-io/1.4/commons-io-1.4.jar
2dae496a19c82b8e9985a1246aa80cf98082b1ae2217cf4b2d4d5ff13a365af2 /commons-io/commons-io/1.4/commons-io-1.4.pom
cc6a41dc3eaacc9e440a6bd0d2890b20d36b4ee408fe2d67122f328bb6e01581 /commons-io/commons-io/2.4/commons-io-2.4.jar
b2b5dd46cf998fa626eb6f8a1c114f6167c8d392694164e62533e5898e9b31f2 /commons-io/commons-io/2.4/commons-io-2.4.pom
ce6f913cad1f0db3aad70186d65c5bc7ffcc9a99e3fe8e0b137312819f7c362f /commons-logging/commons-logging/1.1.1/commons-logging-1.1.1.jar
d0f2e16d054e8bb97add9ca26525eb2346f692809fcd2a28787da8ceb3c35ee8 /commons-logging/commons-logging/1.1.1/commons-logging-1.1.1.pom
70903f6fc82e9908c8da9f20443f61d90f0870a312642991fe8462a0b9391784 /commons-logging/commons-logging/1.1.3/commons-logging-1.1.3.jar
3250ac3ac6bd60ed0631f5cd0335032b2993d63e405a6ae0555d27a7e4865849 /commons-logging/commons-logging/1.1.3/commons-logging-1.1.3.pom
33a4dd47bb4764e4eb3692d86386d17a0d9827f4f4bb0f70121efab6bc03ba35 /commons-logging/commons-logging-api/1.1/commons-logging-api-1.1.jar
69b8be61aa746c7d02acb1b11eb3b57cb22b246780ed71d79764195cbbe3d99d /commons-logging/commons-logging-api/1.1/commons-logging-api-1.1.pom
f868fc9e23d7203834abb5e0d11782e1e8920d4e95a06735a13dd51ab8049de8 /com/mycila/maven-license-plugin/maven-license-plugin/1.10.b1/maven-license-plugin-1.10.b1.jar
9576f1134ebf1f0dae51d1e5cce46a6a6e5b5c5998cc12318ebfd16162702d8b /com/mycila/maven-license-plugin/maven-license-plugin/1.10.b1/maven-license-plugin-1.10.b1.pom
d190c18ef3caf788c84a49d6bc200be29a76c00d3ad6030bf11f7afaa4b24f88 /com/mycila/parent-pom/5/parent-pom-5.pom
870f9396789e2f48a7b8fb28dfc070c2f8e74b2007274ce23e69b658110fd294 /com/mycila/xmltool/xmltool/3.3/xmltool-3.3.jar
eb83f616945c8c7dfb4d80e6f909e7286f523bb11077802bcd216bd70e9c717a /com/mycila/xmltool/xmltool/3.3/xmltool-3.3.pom
a661dfcb749053fc26eada2a0a8e619a8ead1ca9eda29e1698687aa2cdd80152 /com/nothome/javaxdelta/2.0.1/javaxdelta-2.0.1.jar
93bbe8babc70e175d406ac689b90e689f4915c6e39e738eb6406fa5b529ce36c /com/nothome/javaxdelta/2.0.1/javaxdelta-2.0.1.pom
6c4b4e50e608763564afa1bde2d25ece9dd715e7c9129540faa1faded4896506 /com/paulscode/codecjorbis/20101023/codecjorbis-20101023.jar
d246a119ba41e3c866bf728fb6e98277bd3f8695130056039dbbfd000cc3ff6b /com/paulscode/codecjorbis/20101023/codecjorbis-20101023.pom
bb7d17b340afe6abdfbfdaa03683bce4aef39a64887dbab0636eaff3cf2d59ba /com/paulscode/codecwav/20101023/codecwav-20101023.jar
5f95932d9b4b254b890d9105f2d3917bc60ceaf77ae1bc75a79c6b20662e596d /com/paulscode/codecwav/20101023/codecwav-20101023.pom
333bbefeff5eb1722dc9b8d2e26c38bc69c1efa07d0ca870480f29d8858aa336 /com/paulscode/libraryjavasound/20101123/libraryjavasound-20101123.jar
ce4a18bc8e94f155421f6b3d0b9bb6939c9ca206df85e5c10587e66e34310c44 /com/paulscode/libraryjavasound/20101123/libraryjavasound-20101123.pom
107d11509f6af59b8c2ba23df828bc5d3c4e067b58f3d858c7deb90ca5308f84 /com/paulscode/librarylwjglopenal/20100824/librarylwjglopenal-20100824.jar
ff88b9584f5ba98863f24fc3f6014854c7a176fe7017813a6d023e722ce05aee /com/paulscode/librarylwjglopenal/20100824/librarylwjglopenal-20100824.pom
2882d64550240dd0c026724da664d9f97ef205c91d6a85273d10790d88608f34 /com/paulscode/soundsystem/20120107/soundsystem-20120107.jar
c1a2438a4d35f8586c71d96c44a7e2f133ec924597147a246f8c501acca6acb5 /com/paulscode/soundsystem/20120107/soundsystem-20120107.pom
4ccbc821a417f0174c9734fc721f078177cacef94ded09c3775ebf40c6a7bdfd /com/typesafe/akka/akka-actor_2.11/2.3.3/akka-actor_2.11-2.3.3.jar
9f9920b48ae5f1045fe966f08164d6b4e0a727cf17f8e4813ae5c0f2daecffbc /com/typesafe/akka/akka-actor_2.11/2.3.3/akka-actor_2.11-2.3.3.pom
c160fbd78f51a0c2375a794e435ce2112524a6871f64d0331895e9e26ee8b9ee /com/typesafe/config/1.2.1/config-1.2.1.jar
62361ef10448869fff8c05150bd0449b423e3ff4498f2a4bab825b3c7685aa3c /com/typesafe/config/1.2.1/config-1.2.1.pom
ea6fdd37e68569a378fd149b0ab7cfede1de7fa3e794f4ed81f9018366fbdc51 /de/oceanlabs/mcp/mcp/1.8.9/mcp-1.8.9-srg.zip
aeed0aaba9d159b7ce60a21e2dcc36adb249fade65ce2f76c730dd0ec7270763 /de/oceanlabs/mcp/mcp_stable/22-1.8.9/mcp_stable-22-1.8.9.zip
22c45060f350fcaa94e503f4a420cf8237c26c0fcdb4ada4aa98389b75c7b231 /de/oceanlabs/mcp/RetroGuard/3.6.6/RetroGuard-3.6.6.jar
d6f165bb39aaa20ee14fdcbbdb0b8fffae38067087f333ec6e0acd3f6666b2ad /de/oceanlabs/mcp/RetroGuard/3.6.6/RetroGuard-3.6.6.pom
50510e9c9874b539b98ef931fe7eeeb002f6b5b1976ea37669b9493426294561 /io/netty/netty-all/4.0.23.Final/netty-all-4.0.23.Final.jar
990a10af14db6b136d3a539eadca5dc7b4d0ceab9a1c90c5268b0ca8ae27b14b /io/netty/netty-all/4.0.23.Final/netty-all-4.0.23.Final.pom
f7f1bd6f1e1df0b300730f1551b7222f13871e40ba5a464978bd3eed94e2212d /io/netty/netty-parent/4.0.23.Final/netty-parent-4.0.23.Final.pom
09adf7955baa6bddf57a4bdbf9a91cf690261314969b59a18085ece1e05eccf9 /java3d/vecmath/1.5.2/vecmath-1.5.2.jar
a4aee4668f1b127c95c9afe1b922f4c5a0b1ad879ba811077cb7d0e048dce231 /java3d/vecmath/1.5.2/vecmath-1.5.2.pom
a6d2c9c0ddff7702662073b69c6dc4ec83011d22e4eb2dada28aa2d66ee47f97 /jline/jline/2.13/jline-2.13.jar
ba62d78eb858e241a604cdf739594cd312f0572756ea7aba4544c746d7152c43 /jline/jline/2.13/jline-2.13.pom
90a8e1603eeca48e7e879f3afbc9560715322985f39a274f6f6070b43f9d06fe /junit/junit/4.11/junit-4.11.jar
18ad8b0ae9e65a9195d04e25427dfe8b58175abcdae875a5a406aee38bddfb26 /junit/junit/4.11/junit-4.11.pom
dc67378cf428c06408e7959e83bdc1518dd22ccd313e7c28a986612d65c276c7 /log4j/log4j/1.2.12/log4j-1.2.12.jar
cb54dedc5d8c4510148dfa792701cbac1a84c383a84f48f5a32e6d7e460bbb72 /log4j/log4j/1.2.12/log4j-1.2.12.pom
0c3085cb93c3ef95d731c274b6f2dd195aa0405fe9328d69cab7f5e899d5e124 /lzma/lzma/0.0.1/lzma-0.0.1.jar
a096bc9f7579cec07483874151578720eeb3189c546c19cff56a6203df17b50e /lzma/lzma/0.0.1/lzma-0.0.1.pom
* /mc/game/version_manifest.json
14f0d96d1a56fb4f5c3b2233d00699525893fe5ce3dcf181e7de59120595d298 /mc/game/1.8.9/client/3870888a6c3d349d3771a3e9d16c9bf5e076b908/client.jar
c18e4245073aaff580eb7359902f0251436568b1647a9e443a924cdb73fa8312 /mc/game/1.8.9/server/b58b2ceb36e01bcd8dbf49c8fb66c55a9f0676cd/server.jar
96ef70491d03b17823178bad7d2e562d742e36a9006e32acb6003b700833e612 /mc/game/42c67f1d38e55da24741c9e40ef5253f289177f1/1.8.9.json
3bff6a1489b8e54cf130344bc5e8744db331045ad2fc736612576e1d80eb1f48 /net/java/dev/jna/jna/3.4.0/jna-3.4.0.jar
cf4605822bd56d135dd7031603f122a11a0ec772373f466a4f2aac72dd9a1761 /net/java/dev/jna/jna/3.4.0/jna-3.4.0.pom
ea89d5090c8303ba4e9a0056e6d8a20429f3e021411e950bfd9eba3b6e6cf15c /net/java/dev/jna/platform/3.4.0/platform-3.4.0.jar
8f0c14f62912c089d81386015e78cf212f9e96f675b3bc0e519c1e2d92aa8950 /net/java/dev/jna/platform/3.4.0/platform-3.4.0.pom
79b5a4f5829e1a49a415711f7fb8eb5b9ad22defa72929fda2da96ec30d3f018 /net/java/jinput/jinput/2.0.5/jinput-2.0.5.jar
3199d547c1275e806e0c7be19e90dcb00d9561ec3b31fb2e780e12d7d8785810 /net/java/jinput/jinput/2.0.5/jinput-2.0.5.pom
1ab4d194277816b6105253d224c8c69f1b6d720690efe7c85f3ce884f0ea273d /net/java/jinput/jinput-platform/2.0.5/jinput-platform-2.0.5-natives-linux.jar
171024b00f9a743b92388b48733dc30fd3f6d3a7da4f66f9821531fbcf1aa074 /net/java/jinput/jinput-platform/2.0.5/jinput-platform-2.0.5-natives-osx.jar
24afbd5e1fab17da57d16a4d3f19d53f36155ef46a9976484201a4bb9722287f /net/java/jinput/jinput-platform/2.0.5/jinput-platform-2.0.5-natives-windows.jar
ba27597365ae85a836c1f51819903668b4a1a7490e39e530633cc8a7b40b5500 /net/java/jinput/jinput-platform/2.0.5/jinput-platform-2.0.5.pom
c3334ff39cf0ab3b54925619101054c90098b7c733b1e7834c7b75e4c41e84a5 /net/java/jutils/jutils/1.0.0/jutils-1.0.0.jar
af09ead4eb241473e7ec4d152a91a722ea09a717a202e20e4b385eac3217b7d6 /net/java/jutils/jutils/1.0.0/jutils-1.0.0.pom
b47c5d5810643426a3147ddb2195ef2ab67c80b167e7c2ac64a5d0dee8c030dd /net/md-5/SpecialSource/1.7.4/SpecialSource-1.7.4.jar
5f374f8ae7afff8dbc23aff14e59c5bd585c230afe9a8dcaa7b928e8cb16a27e /net/md-5/SpecialSource/1.7.4/SpecialSource-1.7.4.pom
* /net/minecraftforge/forge/json
029ba9ca09212fbb850ea78a6b53b96b1288195b4e191194793cf5cf80d5758a /net/minecraftforge/forge/1.8.9-11.15.1.1722/forge-1.8.9-11.15.1.1722.pom
521a5faf35432ea33ec342b6fd104311fabe6254366c601a63671508b27517fe /net/minecraftforge/forge/1.8.9-11.15.1.1722/forge-1.8.9-11.15.1.1722-userdev.jar
e74b65b8948446982a506a96176dd8baf4688237ba4903f56ca6f667b6c7ee42 /net/minecraft/launchwrapper/1.11/launchwrapper-1.11.jar
616c4971035d1e6ab4809e16daabb02aa308c1dc001c06dd547c7d3b2e916999 /net/minecraft/launchwrapper/1.11/launchwrapper-1.11.pom
57f402b626d16cc2705bf2a37add7adbb074f0ca3b3102fa6e23aa303dae682f /net/minecraft/launchwrapper/1.12/launchwrapper-1.12.jar
5f1fced192c1dc9b68ef7dec12ba7a033129a71b290c283046a59aa2902e1fbc /net/minecraft/launchwrapper/1.12/launchwrapper-1.12.pom
64335a48be6b142a7d0c13ec5c82a707857aa58c0234e6eda3eaca0e96eea51b /net/sf/jopt-simple/jopt-simple/4.5/jopt-simple-4.5.jar
60f08a3d6fc0e7948fd00fc95fad014fae5a5dc7eb991a631e0efee8bfad0b27 /net/sf/jopt-simple/jopt-simple/4.5/jopt-simple-4.5.pom
3fcfbe3203c2ea521bf7640484fd35d6303186ea2e08e72f032d640ca067ffda /net/sf/jopt-simple/jopt-simple/4.6/jopt-simple-4.6.jar
692744a19473011539ebc1370a264b8af1c056e0ae21f5372aa9dd7d4b4e5a2b /net/sf/jopt-simple/jopt-simple/4.6/jopt-simple-4.6.pom
9f0c8d50fa4b79b6ff1502dbec8502179d6b9497cacbe17a13074001aed537ec /net/sf/jopt-simple/jopt-simple/5.0.1/jopt-simple-5.0.1.jar
606e9b1d8e448a8f454b7eb585320b392e80f68880e92bef98cdf9dab8714340 /net/sf/jopt-simple/jopt-simple/5.0.1/jopt-simple-5.0.1.pom
dc0ba5bff6140dc92339973026a0ecbddc2a3b01bdd46ed9d16becc2f6d78de6 /net/sf/opencsv/opencsv/2.3/opencsv-2.3.jar
57f5607565d6a90dee6722801d4524813d9d2785046f2954a18861dfbf4a2149 /net/sf/opencsv/opencsv/2.3/opencsv-2.3.pom
294fb88c272598b9a5dcae15f13d228e64134256de941fbc28917a994beeb075 /net/sf/trove4j/trove4j/2.1.0/trove4j-2.1.0.jar
6d486c048a84c90ad9239b7b06a7d686d43eda28f827fac08d4f4ea942d21d0a /net/sf/trove4j/trove4j/2.1.0/trove4j-2.1.0.pom
3c8616203d61a12a7e3487e8b34f3c198c2b5ba9e90da0c7ea32d99cd4958012 /net/sf/trove4j/trove4j/3.0.3/trove4j-3.0.3.jar
11327b94615d0bf16d4e17334902de783c2022f5e909d51fbce993a7a9d7e1d8 /net/sf/trove4j/trove4j/3.0.3/trove4j-3.0.3.pom
3b93b62c0ea3ab9b5c1c1cdb1a3f25a7eb758f9974e8998f4e1815ba33cb7a1e /nl/javadude/gradle/plugins/license-gradle-plugin/0.11.0/license-gradle-plugin-0.11.0.jar
afded103d53d00171f486ab23c35151d8b82b32e51390c30ae734e83de863c52 /nl/javadude/gradle/plugins/license-gradle-plugin/0.11.0/license-gradle-plugin-0.11.0.pom
4ead9d3e3f305a4ed26fd732e6f0df0be2524e2daf2681df1b001fbb8efc9735 /oauth/signpost/oauth-signpost/1.2.1.2/oauth-signpost-1.2.1.2.pom
e26198c1bb8e3cde5f6e85305d0c4ef7730c53406c0d2a1f36ce30661df9fc22 /oauth/signpost/signpost-commonshttp4/1.2.1.2/signpost-commonshttp4-1.2.1.2.jar
5d3ef59d3820f64a6dd09b9ad7a083bbe24a9f97ce01ad412238877594e34e56 /oauth/signpost/signpost-commonshttp4/1.2.1.2/signpost-commonshttp4-1.2.1.2.pom
a1d69c5346ebf086b0f63c382b4500ceb29304d8fe95157b060aa4cd3861f230 /oauth/signpost/signpost-core/1.2.1.2/signpost-core-1.2.1.2.jar
f3c6788ccec4e1818b3f02d32fe8b5ab9caac52b0962e98466d980710c47298c /oauth/signpost/signpost-core/1.2.1.2/signpost-core-1.2.1.2.pom
649ae0730251de07b8913f49286d46bba7b92d47c5f332610aa426c4f02161d8 /org/apache/ant/ant/1.9.4/ant-1.9.4.jar
5ce23a18f28d04be351f863020da0136214218aface05560516b97555a5077fd /org/apache/ant/ant/1.9.4/ant-1.9.4.pom
7bccea20b41801ca17bcbc909a78c835d0f443f12d639c77bd6ae3d05861608d /org/apache/ant/ant-launcher/1.9.4/ant-launcher-1.9.4.jar
c9193ed600adc6c7943a6c6dc6bd952edcb5f10fb2cda594b7199766fdeef698 /org/apache/ant/ant-launcher/1.9.4/ant-launcher-1.9.4.pom
a93aa9c66665872b0e51360c15ae282971e36a8aa987b40ef4d82d9a5aa151c4 /org/apache/ant/ant-parent/1.9.4/ant-parent-1.9.4.pom
802feece72852dafcbd0a425a60367c72c5cb9b6ea5aae59481128569189daf9 /org/apache/apache/10/apache-10.pom
ff513db0361fd41237bef4784968bc15aae478d4ec0a9496f811072ccaf3841d /org/apache/apache/13/apache-13.pom
36c2f2f979ac67b450c0cb480e4e9baf6b40f3a681f22ba9692287d1139ad494 /org/apache/apache/15/apache-15.pom
9e9323a26ba8eb2394efef0c96d31b70df570808630dc147cab1e73541cc5194 /org/apache/apache/4/apache-4.pom
4946e60a547c8eda69f3bc23c5b6f0dadcf8469ea49b1d1da7de34aecfcf18dd /org/apache/apache/9/apache-9.pom
93f8dfcd20831a28d092427723f696bceb70b28e7fb89d7914f14d5ea492ce5a /org/apache/commons/commons-collections4/4.0/commons-collections4-4.0.jar
f23d3625d35b016f3e8b77fb3ebf5e543807081fce2492f45a79d00160789a78 /org/apache/commons/commons-collections4/4.0/commons-collections4-4.0.pom
5fca136503f86ecc6cb61fbd17b137d59e56b45c7a5494e6b8fd3cabd4697fbd /org/apache/commons/commons-compress/1.8.1/commons-compress-1.8.1.jar
10137adb14e8520b2abcddc308003e432eb836c4d1f9a00f68601d63583b9fb8 /org/apache/commons/commons-compress/1.8.1/commons-compress-1.8.1.pom
cb49812dc1bfb0ea4f20f398bcae1a88c6406e213e67f7524fb10d4f8ad9347b /org/apache/commons/commons-exec/1.3/commons-exec-1.3.jar
82827f6019c0f71bd74fba886ab337ff6da291f63df9723379a209d6ad3b44f8 /org/apache/commons/commons-exec/1.3/commons-exec-1.3.pom
6b81d10754dadf184d386011486e6509c2cc0c3d33565ced4fb4402b9413d47d /org/apache/commons/commons-lang3/3.3.2/commons-lang3-3.3.2.jar
e1875bf575999ebc62dec34304a0d108c30a4ff8101e8ea5c9a9332715277940 /org/apache/commons/commons-lang3/3.3.2/commons-lang3-3.3.2.pom
b9e0306f393460105b8a3fa5105250c5291b1efaa99954ace0ec1c783109a02a /org/apache/commons/commons-parent/11/commons-parent-11.pom
fb8c5e55e30a7addb4ff210858a0e8d2494ed6757bbe19012da99d51586c3cbb /org/apache/commons/commons-parent/22/commons-parent-22.pom
467ae650442e876867379094e7518dfdd67d22c5352ebd39808c84259e9790ba /org/apache/commons/commons-parent/25/commons-parent-25.pom
14733a68e8b120b69de60cd96d222146dcf32f03c1c6cc6a750b1269bafe86c7 /org/apache/commons/commons-parent/28/commons-parent-28.pom
e4d258af8b2ff4032148d415379def7870789a6003e80576f1504b10f26b4be8 /org/apache/commons/commons-parent/32/commons-parent-32.pom
53d0011352e2e5106f379dafccdac7754ec6f0f78243c0305e4969f5acddf8fb /org/apache/commons/commons-parent/33/commons-parent-33.pom
7098a1ab8336ecd4c9dc21cbbcac869f82c66f64b8ac4f7988d41b4fcb44e49a /org/apache/commons/commons-parent/35/commons-parent-35.pom
8bd632c00bdf80a7de36c22b60f12452c147d8eca2f00d79d66699ebe7daa02a /org/apache/commons/commons-parent/5/commons-parent-5.pom
01e97067a1f9bd0e0a34f2f32bbf43fe6e9b11910f3b0dfe77fd7fb418619105 /org/apache/commons/commons-parent/7/commons-parent-7.pom
752596ebdc7c9ae5d9a655de3bb06d078734679a9de23321dbf284ee44563c03 /org/apache/httpcomponents/httpclient/4.0.1/httpclient-4.0.1.jar
51b8c025a4a1700d861d17bc2332f2b5045a81bad5d55291d9b652bb782151b2 /org/apache/httpcomponents/httpclient/4.0.1/httpclient-4.0.1.pom
9d0e815461efc8fc9aa5de4dda9ae29d076430b2e93e268a31d7a47cc00a31cf /org/apache/httpcomponents/httpclient/4.2.2/httpclient-4.2.2.jar
2ee7f81822a156a897b10a934b2158fa44d574dc20488f2fb9eb4d058673cbe7 /org/apache/httpcomponents/httpclient/4.2.2/httpclient-4.2.2.pom
9844cc9b5440d65a88d28bcba9d771374d2dfdab898848cda164611091633013 /org/apache/httpcomponents/httpclient/4.3.3/httpclient-4.3.3.jar
03f7d67d6547083a38413c0da921d194a6010236f8980c7585c0c8f3019c0aa8 /org/apache/httpcomponents/httpclient/4.3.3/httpclient-4.3.3.pom
1a5cfc674477ce7fd1150e8ea841f18301da1a4bfc729a029e072e81f3f36515 /org/apache/httpcomponents/httpcomponents-client/4.0.1/httpcomponents-client-4.0.1.pom
aecd5527c274ea6ed63da7f71b69c6a61a64784ff6c7266e0d94fcbf391027e2 /org/apache/httpcomponents/httpcomponents-client/4.2.2/httpcomponents-client-4.2.2.pom
15c27734dbcedc6af2cf18fa72a8c6e248477144a3d936a0fc228aaa74a02b00 /org/apache/httpcomponents/httpcomponents-client/4.3.3/httpcomponents-client-4.3.3.pom
70d3b2bb5d199da825681559ff68aa5bdee201206c50af177bf7ca4d94226752 /org/apache/httpcomponents/httpcomponents-core/4.0.1/httpcomponents-core-4.0.1.pom
ad4346d6375faa11a4d8cb45130acc86fb7ede86451194066da0559e41d5789e /org/apache/httpcomponents/httpcomponents-core/4.2.2/httpcomponents-core-4.2.2.pom
aa3ec31c7dd2161cfe3a3975645ea8703db0a6d6adb7d5b1766b32764c5c1806 /org/apache/httpcomponents/httpcomponents-core/4.3.2/httpcomponents-core-4.3.2.pom
3b6bf92affa85d4169a91547ce3c7093ed993b41ad2df80469fc768ad01e6b6b /org/apache/httpcomponents/httpcore/4.0.1/httpcore-4.0.1.jar
d1f666e38907c9471c64a3cdf87e0b1b0469d503e51cc14661860f7f6bd70c6e /org/apache/httpcomponents/httpcore/4.0.1/httpcore-4.0.1.pom
c32bbf016f1eec0581febb177c761c2f657d9635d110affdd8c63382425e50f0 /org/apache/httpcomponents/httpcore/4.2.2/httpcore-4.2.2.jar
c1695c0b0c3d7be7f02f558b56763b0024ecaae6b9f981e2e145c05e9fea0972 /org/apache/httpcomponents/httpcore/4.2.2/httpcore-4.2.2.pom
abd02320e2356f89d054dae4cf02306bef20a9cf7865b3ac94ec7552b4f1528b /org/apache/httpcomponents/httpcore/4.3.2/httpcore-4.3.2.jar
dfe5335f45b9466af820368b95c543d7542fcfcbe5f5d379e91cf0432e2df489 /org/apache/httpcomponents/httpcore/4.3.2/httpcore-4.3.2.pom
61434dbb2314cbb8d28025feb6ae53bbc45d1042daa34371d8911e1e7f570b36 /org/apache/httpcomponents/httpmime/4.3.3/httpmime-4.3.3.jar
30e52abf8461a7ab254f20ec2c28e01865721ad9fbdb3baf14f32251623a1f87 /org/apache/httpcomponents/httpmime/4.3.3/httpmime-4.3.3.pom
a35e70c72865add3f9416194e02d6f9967dbf0c77d253933f80fbf46ad4d2169 /org/apache/httpcomponents/project/4.0/project-4.0.pom
b5d9225adb8683c1d7c5514544382add004547c93694abb5bd52b87346886f42 /org/apache/httpcomponents/project/6/project-6.pom
3d6eba428555a558de046b5d76eacc1f5a54b4f5f20b84d636ed7aff18aa48c3 /org/apache/httpcomponents/project/7/project-7.pom
9ab50a08565c7c01082266d2464b7656e2448e40788375ff5c034da17042cc24 /org/apache/logging/log4j/log4j/2.0-beta9/log4j-2.0-beta9.pom
eb0ca9bdd938f80711152a758d6bc331a8b0d769199d457294dc67ed03f73498 /org/apache/logging/log4j/log4j-api/2.0-beta9/log4j-api-2.0-beta9.jar
4e10aac66cfabc8a16f0045bca650e082a190caca85d1c28376a71b9b918b40d /org/apache/logging/log4j/log4j-api/2.0-beta9/log4j-api-2.0-beta9.pom
dcde6033b205433d6e9855c93740f798951fa3a3f252035a768d9f356fde806d /org/apache/logging/log4j/log4j-core/2.0-beta9/log4j-core-2.0-beta9.jar
f360def8ad0c62f5420a9b2ef8d6a51f87703e05c1df08494578a1d4024b05ad /org/apache/logging/log4j/log4j-core/2.0-beta9/log4j-core-2.0-beta9.pom
4d223e01a6569d6655c1f4fce84969d45142cdbabdb118ea08c5c8c33ec632f6 /org/apache/maven/maven/3.0.4/maven-3.0.4.pom
4c2f8341518aeb9d488844e334c02fa66dd4bb091bfdeb965c8a848ac6ea5aa2 /org/apache/maven/maven/3.0-alpha-2/maven-3.0-alpha-2.pom
33ff4aabbd0d02e4dd8279cda8f366c69915302bc4bb97bc01814a985f5c0643 /org/apache/maven/maven-aether-provider/3.0.4/maven-aether-provider-3.0.4.jar
a5082fe0a870bd361b3ecd6ab3e4641cfe775a8da19d80d8b2e277e7861f831b /org/apache/maven/maven-aether-provider/3.0.4/maven-aether-provider-3.0.4.pom
3c199a96af9550872724f41c053d7839dfcc6512e7704fa16c675363c4146796 /org/apache/maven/maven-artifact/3.0.4/maven-artifact-3.0.4.jar
e39722dcdf98a6a245db3e0f54d0d4a5555c8c9361e3efbfed3a7be1158b9c6c /org/apache/maven/maven-artifact/3.0.4/maven-artifact-3.0.4.pom
85500348730f338599e5f454be4a9909a6d01e86effc1ed0650a71e544bc67d5 /org/apache/maven/maven-compat/3.0-alpha-2/maven-compat-3.0-alpha-2.jar
4196effcccdbe4ef8dc625e5dd8e13284971dd884dc80109cb1f44d76dd0d7e7 /org/apache/maven/maven-compat/3.0-alpha-2/maven-compat-3.0-alpha-2.pom
3dd795c0ad9742a0be65a2a5ec22428d59dd2a891a7565ae94f64661e3740528 /org/apache/maven/maven-core/3.0.4/maven-core-3.0.4.jar
61d1fc83ce71c4af6a5061d0c4884b0cad5a9bd4ef12bce0a628ece6db13a9a7 /org/apache/maven/maven-core/3.0.4/maven-core-3.0.4.pom
26b6825ea73ac4d7b1a6f5e62ac1c11b0fc272504da6dde9ba8f894cd847e1c1 /org/apache/maven/maven-model/3.0.4/maven-model-3.0.4.jar
264be3f212d59f9103d3b997c9d0197ff89489d06b7d195d80ee56356b6c662e /org/apache/maven/maven-model/3.0.4/maven-model-3.0.4.pom
b4f1d3ae53c290e1ae45694c5ce2d17bf8d577ff5ece0f9aa0cffe151a6ef4e7 /org/apache/maven/maven-model-builder/3.0.4/maven-model-builder-3.0.4.jar
ac605e66a84dd9ee63610d650b007e3c8fbb7feef73e94bdd899e60dd475a20f /org/apache/maven/maven-model-builder/3.0.4/maven-model-builder-3.0.4.pom
81fe14cb9779d36e0c610e1049e5b32a6b9974957f257921acf628b31c5486c8 /org/apache/maven/maven-parent/10/maven-parent-10.pom
fc45af8911ea307d1b57564eef1f78b69801e9c11a5619e7eb58d5d00ae9db8e /org/apache/maven/maven-parent/21/maven-parent-21.pom
3cb6712f827c80dc6b0b0b967776dba451c023a92b7741bba45d23ab7a83281a /org/apache/maven/maven-parent/8/maven-parent-8.pom
4e5ee7f7ab7e43f691788489e59f2da4a322e3e35f2a2d8b714ad929f624eead /org/apache/maven/maven-plugin-api/3.0.4/maven-plugin-api-3.0.4.jar
bd928e987661ac90495ca7cdcd5d2fd20cbed97fb9565e30d8425aadae26ee90 /org/apache/maven/maven-plugin-api/3.0.4/maven-plugin-api-3.0.4.pom
0b76d82011452170dddd21fb33da6bfc414ff6629fce6219fbf1d78ce1518e90 /org/apache/maven/maven-project/3.0-alpha-2/maven-project-3.0-alpha-2.jar
24477230086e456dff22c24dec30aab0a8ae321a2ce5645a85a8516f7dd829e3 /org/apache/maven/maven-project/3.0-alpha-2/maven-project-3.0-alpha-2.pom
f3905cb8c223c33f6121bc937b66a2f58653be766042fb6e924b9882c555d891 /org/apache/maven/maven-project-builder/3.0-alpha-2/maven-project-builder-3.0-alpha-2.jar
392f9bcc7eb6d9ab85b693cda0c3ba698fc770d32843491c8815b87f40fe02a8 /org/apache/maven/maven-project-builder/3.0-alpha-2/maven-project-builder-3.0-alpha-2.pom
a25c4db27cffda9e9229db168b1190d6a3e5439f3f67d6afec3df9470e0752d5 /org/apache/maven/maven-repository-metadata/3.0.4/maven-repository-metadata-3.0.4.jar
5fe2b1d87fd326c1a22aac3869da7935ad31760d978fdff9a073c3fbfd54e18d /org/apache/maven/maven-repository-metadata/3.0.4/maven-repository-metadata-3.0.4.pom
3e3df17f5df5e4ce1e7b7f2011c57d61d328e65678542ade2048f0d0fa295f09 /org/apache/maven/maven-settings/3.0.4/maven-settings-3.0.4.jar
beedffd7c7e49ad35ef945c3413f1819f04e43ea294a31804714c8cbb0f372b3 /org/apache/maven/maven-settings/3.0.4/maven-settings-3.0.4.pom
a38a54ec1e69a30ddfc14434e0aec2764fc268668abcc0e132d86692a5dce3e4 /org/apache/maven/maven-settings-builder/3.0.4/maven-settings-builder-3.0.4.jar
3e0b3f60267b6070a741b15db5b40fbd824c61db12a1f4f166ed658b9f62ece0 /org/apache/maven/maven-settings-builder/3.0.4/maven-settings-builder-3.0.4.pom
6c35daab503ff462f4f63317ae723bd37cae37460ea3576374a347583e7c4327 /org/apache/maven/wagon/wagon/1.0-beta-4/wagon-1.0-beta-4.pom
6a82569576cda4cae793800ed2985202de8a59e414d2140e217cf077709e7bbb /org/apache/maven/wagon/wagon-provider-api/1.0-beta-4/wagon-provider-api-1.0-beta-4.jar
1739331652c6e93dd3305a9c5b33f493c85782171e9e8a3e0c750b030dabadd1 /org/apache/maven/wagon/wagon-provider-api/1.0-beta-4/wagon-provider-api-1.0-beta-4.pom
56ab9c6c2d022a9b7079006ba500a996cd2c21411d53cac524933af20c5a4b99 /org/apache/xbean/xbean/3.4/xbean-3.4.pom
17e0efa187127034623197fb88c50c30d3baa62baa0f07d6ec693047ac92ec3b /org/apache/xbean/xbean-reflect/3.4/xbean-reflect-3.4.jar
01c97d4286dd3b5e5441faac3abb589f1fe123cea138bb4ae0995ffae14938df /org/apache/xbean/xbean-reflect/3.4/xbean-reflect-3.4.pom
c7964f00c3d3889c5223e8fcb7476610c59453c86bccc68ef493a56d171bf655 /org/aspectj/aspectjrt/1.8.2/aspectjrt-1.8.2.jar
ba5261a1f07260c3d8016623fdd27d662b9934266a75d4f57f165bfbaf9af1a8 /org/aspectj/aspectjrt/1.8.2/aspectjrt-1.8.2.pom
f07694998acb204782c72cc8067b237a04097a2170f07d440614883f14a67630 /org/codehaus/groovy/groovy-backports-compat23/2.4.4/groovy-backports-compat23-2.4.4.jar
2f93f476d35dd52828e13f32a4be68ab80a3b999713079feb98c67ae9e8d858f /org/codehaus/groovy/groovy-backports-compat23/2.4.4/groovy-backports-compat23-2.4.4.pom
e246e2a062b5d989fdefc521c9c56431ba5554ff8d2344edee9218a34a546a33 /org/codehaus/plexus/plexus/2.0.2/plexus-2.0.2.pom
2b59062030ab0a15c5d0977ba22421706368926488739a65f25793e715cc8a74 /org/codehaus/plexus/plexus/2.0.7/plexus-2.0.7.pom
259d528a29722cab6349d7e7d432e3fd4877c087ffcb04985a6612e97023bba8 /org/codehaus/plexus/plexus-classworlds/2.4/plexus-classworlds-2.4.jar
c0439c2b2d850488686143e2529f521b38f2abded6ac212add8f0c637eb912e9 /org/codehaus/plexus/plexus-classworlds/2.4/plexus-classworlds-2.4.pom
4df7a6a7be64b35bbccf60b5c115697f9ea3421d22674ae67135dde375fcca1f /org/codehaus/plexus/plexus-component-annotations/1.5.5/plexus-component-annotations-1.5.5.jar
815f3ec316b8c5fa701385fdf4009bfb51e07d780e8f6a6e2afe720c52d7e292 /org/codehaus/plexus/plexus-component-annotations/1.5.5/plexus-component-annotations-1.5.5.pom
ef5dbc7fa918b6dbba71d27e5b3d7a00df624bcfa2549a7297f36fe275f634d7 /org/codehaus/plexus/plexus-components/1.1.18/plexus-components-1.1.18.pom
00aa0be06a029e4b45032f682089d5052b014c028f9187f83c70adc073672c46 /org/codehaus/plexus/plexus-container-default/1.0-beta-3.0.5/plexus-container-default-1.0-beta-3.0.5.jar
3d90bbd9f534020621c77453dcffdad4e761e42911c2be9adaeec724f9972a9c /org/codehaus/plexus/plexus-container-default/1.0-beta-3.0.5/plexus-container-default-1.0-beta-3.0.5.pom
f53a82db260a2910a9823d6e72a927891daae33d8eb6884ab838a2a2768c6b86 /org/codehaus/plexus/plexus-containers/1.0-beta-3.0.5/plexus-containers-1.0-beta-3.0.5.pom
1bc264824ec876b0ca6f4f5838175c541c638cbc43326a268b9aee7d4778b5ef /org/codehaus/plexus/plexus-containers/1.5.5/plexus-containers-1.5.5.pom
7fc63378d3e84663619b9bedace9f9fe78b276c2be3c62ca2245449294c84176 /org/codehaus/plexus/plexus-interpolation/1.14/plexus-interpolation-1.14.jar
d08155c497df37b2c3d9b5b0dfdb02ec0525b2070b5be3739fffde942fcac9af /org/codehaus/plexus/plexus-interpolation/1.14/plexus-interpolation-1.14.pom
8b909f4ca9788647942f883d4e559bcc642123f7c6bcd3846983a2e465469c33 /org/codehaus/plexus/plexus-utils/2.0.6/plexus-utils-2.0.6.jar
fddad4fa62c82310aec43525e519cd59f27d04c7569fe21b1b03ca210887810c /org/codehaus/plexus/plexus-utils/2.0.6/plexus-utils-2.0.6.pom
35608df55aa672a195d6b01573a5630a315998b3bbd06310b20eb169113923aa /org/codehaus/plexus/plexus-utils/2.1/plexus-utils-2.1.jar
9f4ac6987113d09099bf43b846d2ec1d5e7a8091a6185f1f16d68e845f681243 /org/codehaus/plexus/plexus-utils/2.1/plexus-utils-2.1.pom
03cbe8dcaa909a6f72219abec105675c6df08898971c326cf7e64373bff5e769 /org/codehaus/woodstox/wstx-asl/3.2.6/wstx-asl-3.2.6.jar
784db534cc3c5051f88198e8251da9c8b13625e0eb365a347e1085387d8203b1 /org/codehaus/woodstox/wstx-asl/3.2.6/wstx-asl-3.2.6.pom
e4144cbc26da195c6b22a53691fd079f70b74aa5f55bd6089cd77ec99a0ee8fe /org/eclipse/core/contenttype/3.4.200-v20130326-1255/contenttype-3.4.200-v20130326-1255.pom
4dd6ec1376693bd8ac4e2ceacc7be70880920978f3fef31db4968e6ade001c87 /org/eclipse/core/contenttype/3.4.200-v20140207-1251/contenttype-3.4.200-v20140207-1251.jar
f82370a400c38f78f479df4e79c6e1563e4ec050049279601ca01d85186456a7 /org/eclipse/core/contenttype/3.4.200-v20140207-1251/contenttype-3.4.200-v20140207-1251.pom
52d8987073cf765e620afc7f44e3934a8e854d56c8feca25f6ffb9163871c53f /org/eclipse/core/contenttype/maven-metadata.xml
4a73a4a0ebf5ca5f7e9d5e8978b24cd72ebacd5b561de961517f4c976aa7e30f /org/eclipse/core/expressions/3.3.0-v20070606-0010/expressions-3.3.0-v20070606-0010.jar
fa0d8eb0460cf3d5a7201e9af86431f66473726b9883e461b579056d0f3725e8 /org/eclipse/core/expressions/3.3.0-v20070606-0010/expressions-3.3.0-v20070606-0010.pom
582a5012b8525775059ee59d931179f79bff4bebf41bdab4060341b25742c77a /org/eclipse/core/expressions/maven-metadata.xml
b418d15acf94545248f4bd55b4a9b62fc49246488758729d6b3ff52ae149df24 /org/eclipse/core/filesystem/1.1.0-v20070606/filesystem-1.1.0-v20070606.jar
08f7bd3493e934a6cfe6b30941661bfb7c61ac72181b9d72f6745c03f20cae0a /org/eclipse/core/filesystem/1.1.0-v20070606/filesystem-1.1.0-v20070606.pom
0fb7079593f1e2544828c9a56db2710ea223655eee911ae5fb69e2f6d49b36eb /org/eclipse/core/filesystem/maven-metadata.xml
b52babdb3c1e073175ac0be84cbc41764b0cd5e89ca0dd2ebe29cc3f8d40aa86 /org/eclipse/core/jobs/3.5.300-v20130429-1813/jobs-3.5.300-v20130429-1813.pom
ef971ecb154fba0cc06d913448640fb2e5ab3f9079c1c7854385d1c30d81a94f /org/eclipse/core/jobs/3.6.0-v20140424-0053/jobs-3.6.0-v20140424-0053.jar
851e8123acc70a823fe38f1ad5f95f953c815f8da2cceaa483dfa5604d3ecc38 /org/eclipse/core/jobs/3.6.0-v20140424-0053/jobs-3.6.0-v20140424-0053.pom
753ba9e22869180b1e959860d76a5a2bf9e1a2aa398375a138daa518313efce3 /org/eclipse/core/jobs/maven-metadata.xml
e46a6444a6d7c0fe70f196ce42d9700c4514b68bf55bae296b2e3c287883ffdc /org/eclipse/core/org.eclipse.core.commands/3.6.0/org.eclipse.core.commands-3.6.0.jar
49eccab170e7e1c6aa598f49019fc8310a3da4c87a3e2b9e463825f6e2ba086f /org/eclipse/core/org.eclipse.core.commands/3.6.0/org.eclipse.core.commands-3.6.0.pom
73f9a1a2403f7f9c44d11431c40be4641295f3620570bfef2168a66c5de68fee /org/eclipse/core/resources/3.2.1-R32x_v20060914/resources-3.2.1-R32x_v20060914.jar
592accd91b5c786a4fe082176cabe07034f7603981e4d723ebe39b6d7f620672 /org/eclipse/core/resources/3.2.1-R32x_v20060914/resources-3.2.1-R32x_v20060914.pom
363ad8af4d8fc7f208b6fa640e490c7ba84b2aa78c26809e569bb1b0737ce9cb /org/eclipse/core/runtime/3.10.0-v20140318-2214/runtime-3.10.0-v20140318-2214.jar
ef7f45930ccd7b088b0cab1c932a145c494a2672f48e4244e20a1be06d2d30f3 /org/eclipse/core/runtime/3.10.0-v20140318-2214/runtime-3.10.0-v20140318-2214.pom
9fa94682175edfa5ec863f636087d2875aab106b09507199d914988b60edd522 /org/eclipse/core/runtime/3.9.0-v20130326-1255/runtime-3.9.0-v20130326-1255.pom
ddf19054374a2617ba9c10d7a5ec8eeaeb8f62c2c6e430144e81da15718bb585 /org/eclipse/core/runtime/compatibility/3.1.200-v20070502/compatibility-3.1.200-v20070502.jar
6b3a348064b85a050a1b8f7bd96edd081e8152f7269141308c5f5f4fcc444362 /org/eclipse/core/runtime/compatibility/3.1.200-v20070502/compatibility-3.1.200-v20070502.pom
7d95f541e873e42a0c068dc0f38e819a32f0f386c5ea1ae745ef649a40acb628 /org/eclipse/core/runtime/compatibility/maven-metadata.xml
6bddb60e50592d8f7c9b616624b9b4413accfaf8480d320f7cab8638a46a0515 /org/eclipse/core/runtime/maven-metadata.xml
7b2ad6c43d922f3ba0d18d99879d1d56d6a994ba7b639d5d6276f1a167b6a7ac /org/eclipse/equinox/app/1.3.200-v20130910-1609/app-1.3.200-v20130910-1609.jar
17dbfaba6a138e6fc0eb361069470f00aaf70a94e2d3384f398dee4843eb8fe7 /org/eclipse/equinox/app/1.3.200-v20130910-1609/app-1.3.200-v20130910-1609.pom
83a2cde9ed188efcabebbd2db14128c531c5ba73f8abc599dcae83459a779109 /org/eclipse/equinox/app/maven-metadata.xml
6bc086aab7686a5a528d8c4ab2253d6cec7ead04b052576951e90cc561782257 /org/eclipse/equinox/common/3.6.200-v20130402-1505/common-3.6.200-v20130402-1505.jar
9234dbfd064411a849444abfeb8a10978672690d125beb4194f9e5b0f0a7ee5e /org/eclipse/equinox/common/3.6.200-v20130402-1505/common-3.6.200-v20130402-1505.pom
9274fc22b74d6dc42608049ea51aa046b8fc8fc60b2a7d6ff6d884d76e6ef3f6 /org/eclipse/equinox/common/maven-metadata.xml
32b046de57df2f4887fc5a2c343740d9d12c7fe17541e2cede73cfa4ccbc2436 /org/eclipse/equinox/org.eclipse.equinox.common/3.6.0/org.eclipse.equinox.common-3.6.0.jar
84f171f4c3ded1b29880003b3c42e8e5be780a11f19d6b7d1b6d0125b4a198d8 /org/eclipse/equinox/org.eclipse.equinox.common/3.6.0/org.eclipse.equinox.common-3.6.0.pom
dbaa0e5c2a44c3b314086fba9b6d91fd4a374032ccffc82373d3614bd9d385ea /org/eclipse/equinox/preferences/3.5.100-v20130422-1538/preferences-3.5.100-v20130422-1538.pom
6498d32ab6503b49a44e0a0bfe1c2ac28ffb7e8f88acbdb4dda89d73092d8ca7 /org/eclipse/equinox/preferences/3.5.200-v20140224-1527/preferences-3.5.200-v20140224-1527.jar
d68a303f399eeef919b681c43885481c46bf3cfe39f4ede369f7433087bbe14c /org/eclipse/equinox/preferences/3.5.200-v20140224-1527/preferences-3.5.200-v20140224-1527.pom
70a4c81e2def4d69b44dbc680dc0dce29f274f1dff22b98d1f1f34a0fb28514d /org/eclipse/equinox/preferences/maven-metadata.xml
a6833a81795978d4ad8d2e54597171e2a3447fd6983b8e902710aa1dc946fa24 /org/eclipse/equinox/registry/3.5.400-v20140428-1507/registry-3.5.400-v20140428-1507.jar
cb7c954965e6b2946c2f7be78c1e089b530e0444b1fefc2d8079a5681362bfa1 /org/eclipse/equinox/registry/3.5.400-v20140428-1507/registry-3.5.400-v20140428-1507.pom
d7cd093fdad45c7cc979f44f7166f259607b41cf44a8afe77561594cef4c39d3 /org/eclipse/equinox/registry/maven-metadata.xml
9cddda75f4a1b4469e73f44e7b61a3e897d0f657df4797f9106ffe88c4eeade0 /org/eclipse/jdt/core/compiler/ecj/4.6.1/ecj-4.6.1.jar
536c45e8804de01321c478cfb994377f81f1e32897636616fa21b877fd137c6f /org/eclipse/jdt/core/compiler/ecj/4.6.1/ecj-4.6.1.pom
5a91ef99dc827e77c8dae1481bd5a92a0ce877304f2b25151ba4e0834e8a917d /org/eclipse/jdt/org.eclipse.jdt.core/3.10.0.v20131029-1755/org.eclipse.jdt.core-3.10.0.v20131029-1755.jar
5591ec1f9826a0506b33cb2a7bceceaf4058f667c0d5e8fd1a348c36540d9dcb /org/eclipse/jdt/org.eclipse.jdt.core/3.10.0.v20131029-1755/org.eclipse.jdt.core-3.10.0.v20131029-1755.pom
d6aba7a1569952e082630de6907f460f476c20d97032cb9f7e4f3e14ddb928e7 /org/eclipse/jetty/jetty-parent/14/jetty-parent-14.pom
cf65a484e0626d6b79cc40daa820459d893ba6945cbed119859be4db0a07c1fa /org/eclipse/jgit/org.eclipse.jgit/3.2.0.201312181205-r/org.eclipse.jgit-3.2.0.201312181205-r.jar
bfe5eb76e637e740e7769f6e081c1c2815f0272f76b93b9bad0b6e686f5a9030 /org/eclipse/jgit/org.eclipse.jgit/3.2.0.201312181205-r/org.eclipse.jgit-3.2.0.201312181205-r.pom
0a6f74d2b3a411b785e305ae9678cac377aa2352815a085e4b980d5ba4323f29 /org/eclipse/jgit/org.eclipse.jgit-parent/3.2.0.201312181205-r/org.eclipse.jgit-parent-3.2.0.201312181205-r.pom
fa1d59411d4d2667d8f15638af7c0ac44539234c0982c27a2b65ba06c32a0b3e /org/eclipse/osgi/3.10.0-v20140606-1445/osgi-3.10.0-v20140606-1445.jar
1e10819cdb1fe55d44ac94d37f3b1030275199979a73d04b7b53e2d6000d5d2e /org/eclipse/osgi/3.10.0-v20140606-1445/osgi-3.10.0-v20140606-1445.pom
bddf4d130cb65fdfc1df7df1febde313fc2ff1ac83c8574ff97befd6c515cc30 /org/eclipse/osgi/3.9.1-v20130814-1242/osgi-3.9.1-v20130814-1242.pom
9fbddba8d8cd6322229030a26356ba447421562edebba078267490104ff61d83 /org/eclipse/osgi/maven-metadata.xml
1bacf311ac3d39cc53b03f8de7a4ccffc89c208938f0004a90c652383e927f18 /org/eclipse/text/org.eclipse.text/3.5.101/org.eclipse.text-3.5.101.jar
86545f7161948937a1e632b6bd493008c67c855966acfb7ddd4e710cd7a121ab /org/eclipse/text/org.eclipse.text/3.5.101/org.eclipse.text-3.5.101.pom
88b506fa09a810b19517a2d45cb8f5eaa76c22b18abfbdcf36cd07aebfd56cb0 /org/eclipse/update/configurator/3.2.100-v20070615/configurator-3.2.100-v20070615.jar
4645380254baefd0056e15cc9af6a273fb7d014b8be4ff395a5a61bfe8f4a89c /org/eclipse/update/configurator/3.2.100-v20070615/configurator-3.2.100-v20070615.pom
3c731988480eae3024b27d648aa0408a1cdc065fc523cf41a049fb97148fd30a /org/eclipse/update/configurator/maven-metadata.xml
b1f003f28c3ce1753ea0da22a6f0289197a2c369e7056b32e170af7904eff2c1 /org/fusesource/fusesource-pom/1.8/fusesource-pom-1.8.pom
9e82163ed2fc6257fe627132ce554726e796edee4e5efe9d9e523aee217d60b8 /org/fusesource/jansi/jansi/1.11/jansi-1.11.jar
b0975adc7450698033f3de4792dd6eba72a980c2b56d8e8d36d381385b37a5c9 /org/fusesource/jansi/jansi/1.11/jansi-1.11.pom
8ba9c49b55f979cf4e04d4871092eb50e834b388fca03a2274ccadff12cc9ce8 /org/fusesource/jansi/jansi-project/1.11/jansi-project-1.11.pom
66fdef91e9739348df7a096aa384a5685f4e875584cce89386a7a47251c4d8e9 /org/hamcrest/hamcrest-core/1.3/hamcrest-core-1.3.jar
fde386a7905173a1b103de6ab820727584b50d0e32282e2797787c20a64ffa93 /org/hamcrest/hamcrest-core/1.3/hamcrest-core-1.3.pom
6d535f94efb663bdb682c9f27a50335394688009642ba7a9677504bc1be4129b /org/hamcrest/hamcrest-parent/1.3/hamcrest-parent-1.3.pom
32ed093f39c46a8d99f801240069478eac93b35f07351c001f2cef4330e97b4a /org/jdom/jdom2/2.0.5/jdom2-2.0.5.jar
ebac276b5ad62e9d312fb6ce663d55fdebaba9badc918166e7d60b1ffd1bd475 /org/jdom/jdom2/2.0.5/jdom2-2.0.5.pom
212f6eaa0491dd7359dc33c3a72e82a23b096e1890d984b4d92395abc9a6bf7f /org/jvnet/localizer/localizer/1.12/localizer-1.12.jar
313b5700337e773a68eeab64ec6952c61b5e7a51839d46bcf77376887fe92f02 /org/jvnet/localizer/localizer/1.12/localizer-1.12.pom
e21488c2fe8db4b23a00c3cfdeab3b600e84c1647e08fb7bee442f5fc1f83990 /org/jvnet/localizer/localizer-parent/1.12/localizer-parent-1.12.pom
c118f8d84313980f79e1e7f7ae4b14b10c2f20c77ea4a1c29f6f0b02bc139077 /org/lwjgl/lwjgl/lwjgl/2.9.1/lwjgl-2.9.1.jar
1adb09c3cf35e0f55d5ecd91e4364100364d8a8031cdfa64ae61eaa64f0d79d4 /org/lwjgl/lwjgl/lwjgl/2.9.1/lwjgl-2.9.1.pom
833e721817f70d1445eec13d8ce5a86e12af70efac5014356302e2bbc68b3fe2 /org/lwjgl/lwjgl/lwjgl/2.9.4-nightly-20150209/lwjgl-2.9.4-nightly-20150209.jar
65fb24fa8ee4a7efc554b15cfb447753c39e414ff00e9944d347e6f1176f0438 /org/lwjgl/lwjgl/lwjgl/2.9.4-nightly-20150209/lwjgl-2.9.4-nightly-20150209.pom
a50aaa5a89304c23a9257295cbe803e6130526a4dfaea1784076adbacacfd68e /org/lwjgl/lwjgl/lwjgl-platform/2.9.1/lwjgl-platform-2.9.1-natives-linux.jar
e14afffd87719ba12034dd989d40a75540902a6286629fab1330b51c255ab792 /org/lwjgl/lwjgl/lwjgl-platform/2.9.1/lwjgl-platform-2.9.1-natives-osx.jar
ade8deedceb0b60c630f3e78a7b052b7f8f02ff53d91849d1985d3146bf95590 /org/lwjgl/lwjgl/lwjgl-platform/2.9.1/lwjgl-platform-2.9.1-natives-windows.jar
82eb11d59b06700b9ff3db4e0476de1cf86501ba7cd00bb279f40a7c23ad662b /org/lwjgl/lwjgl/lwjgl-platform/2.9.1/lwjgl-platform-2.9.1.pom
d312147c3999b868fd649887f45203a4195bc10fc563cee4c4f8d22761421f94 /org/lwjgl/lwjgl/lwjgl-platform/2.9.4-nightly-20150209/lwjgl-platform-2.9.4-nightly-20150209-natives-linux.jar
8831b2bd5a53dc343fd6fbed3c18f28ab33d3f28dbe62ebd4a3af81f25c0a5ab /org/lwjgl/lwjgl/lwjgl-platform/2.9.4-nightly-20150209/lwjgl-platform-2.9.4-nightly-20150209-natives-osx.jar
f2e1f2c6bd7511a7504f389b8b716f5d8dc2fdc71e29c89b52644314cf0a228e /org/lwjgl/lwjgl/lwjgl-platform/2.9.4-nightly-20150209/lwjgl-platform-2.9.4-nightly-20150209-natives-windows.jar
11eeed66c2d56892f3e2046121438153e516dd95d368bcf93c0714f9f2bfdd6f /org/lwjgl/lwjgl/lwjgl-platform/2.9.4-nightly-20150209/lwjgl-platform-2.9.4-nightly-20150209.pom
034456b132a336b72757325bb7aaf99e075681ee5650d2bea21717bd485de42f /org/lwjgl/lwjgl/lwjgl_util/2.9.4-nightly-20150209/lwjgl_util-2.9.4-nightly-20150209.jar
cb7239de51893ee5abe90c2bc550422cb336140c0866e9d1c899399eeb8a3ba2 /org/lwjgl/lwjgl/lwjgl_util/2.9.4-nightly-20150209/lwjgl_util-2.9.4-nightly-20150209.pom
9cf1643b0d805db942498cebf941d1c43df0a1322137291c258aec6109200858 /org/lwjgl/lwjgl/parent/2.9.1/parent-2.9.1.pom
9b3282d2065e070f5966c8b324bc8ffaa4a3d53c7d39ef7e0a3458b525bc167e /org/lwjgl/lwjgl/parent/2.9.4-nightly-20150209/parent-2.9.4-nightly-20150209.pom
21091d3a9c1349f640fdc421504a604c040ed89087ecc12afbe32353326ed4e5 /org/mortbay/jetty/jetty/6.1.26/jetty-6.1.26.jar
8169c421acc4931f9eb80b818b13a4553a8582e02d08dfc12a51e4f23b2726c6 /org/mortbay/jetty/jetty/6.1.26/jetty-6.1.26.pom
b24e31635c0e6c401ff84e28905b96d1a760144c15f1deae1a22d5b3356e1667 /org/mortbay/jetty/jetty-parent/10/jetty-parent-10.pom
0173d8dbfed2b8ab2a5b36b608a9c509ea0a3fbb4faca67ce7067680c895066a /org/mortbay/jetty/jetty-parent/7/jetty-parent-7.pom
9b974ce2b99f48254b76126337dc45b21226f383aaed616f59780adaf167c047 /org/mortbay/jetty/jetty-util/6.1.26/jetty-util-6.1.26.jar
1e3c13f07407a4b331e229da6bb782ae734f88b6a26a3fbeb165acabc5f6ef24 /org/mortbay/jetty/jetty-util/6.1.26/jetty-util-6.1.26.pom
a3d6e7608155600a73c763ccac74e6b321f8c23dc4747f90635fc2f7cfc1548a /org/mortbay/jetty/project/6.1.26/project-6.1.26.pom
068756096996fe00f604ac3b6672d6f663dc777ea4a83056e240d0456e77e472 /org/mortbay/jetty/servlet-api/2.5-20081211/servlet-api-2.5-20081211.jar
2d705bf03b0b653b0ba3a260b8fe94833e1266bb1e7eb9efc67821555141c9ee /org/mortbay/jetty/servlet-api/2.5-20081211/servlet-api-2.5-20081211.pom
71c4f78e437b8fdcd9cc0dfd2abea8c089eb677005a6a5cff320206cc52b46cc /org/ow2/asm/asm/5.0.3/asm-5.0.3.jar
7d34653ffe62be7714d2f1969660a17df9ec1b19d8250c4f03db1123c82ba6a0 /org/ow2/asm/asm/5.0.3/asm-5.0.3.pom
18c1e092230233c9d29e46f21943d769bdb48130cc279e4b0e663f423948c2da /org/ow2/asm/asm-commons/5.0.3/asm-commons-5.0.3.jar
e87ea4823ecf2dd856901da359270be904236be59c27e2781eb8d78c97e45b2a /org/ow2/asm/asm-commons/5.0.3/asm-commons-5.0.3.pom
2969356ac1e40fe4141948c563690238f5d79d76aec7fd873536867a331ede81 /org/ow2/asm/asm-debug-all/5.0.3/asm-debug-all-5.0.3.jar
9c99d7a555725bc2f8379977935cdba16d687d9c93b6e0725e196180d490c995 /org/ow2/asm/asm-debug-all/5.0.3/asm-debug-all-5.0.3.pom
2341a72bba5e38c1028a332c11607e1706c13fa600fee6fb546b9a1708418097 /org/ow2/asm/asm-debug-all/5.0.4/asm-debug-all-5.0.4.jar
62efbf37e5068a8708541ae0a4da3d1140f4d711d30e4366445cb96ce13cc79e /org/ow2/asm/asm-debug-all/5.0.4/asm-debug-all-5.0.4.pom
f7ac3f642c36c406543bb56ae3db3a53f263f71bd857b04709986e2d5798c8c4 /org/ow2/asm/asm-debug-all/5.1/asm-debug-all-5.1.jar
0a46e33f6b80bd21ac41eec33fca2e43d79253fb46a32d64ba3867ee22451fff /org/ow2/asm/asm-debug-all/5.1/asm-debug-all-5.1.pom
254b82bec9da4f8efbc8b1f93ab2b87f7465227a82b36cf3d05d9e77a0e8dd2e /org/ow2/asm/asm-debug-all/5.2/asm-debug-all-5.2.jar
491f13bd60757a7cfe76e767766b061d557010394f52cec2fb067707de702caa /org/ow2/asm/asm-debug-all/5.2/asm-debug-all-5.2.pom
b4845405fee9fe4f5f665dfe19badcf32581e3eea51b99a45e9f76a0a830c09d /org/ow2/asm/asm-debug-all/5.2/asm-debug-all-5.2-sources.jar
c2edabf4128a534df4b8b4b0b9b562e94f242ba95ac24dc61485432b8a188e32 /org/ow2/asm/asm-parent/5.0.3/asm-parent-5.0.3.pom
fdf05b9df226573b331a7e5df01135e527dcc07c71626445732bd04379aa4a72 /org/ow2/asm/asm-parent/5.0.4/asm-parent-5.0.4.pom
85ec8258fafc283f61647e6a11b404890821c11db6fcf550779ecf7a14151007 /org/ow2/asm/asm-parent/5.1/asm-parent-5.1.pom
cbfacd5dd812db16dc910994007fe58d9402a25507f81a1c2218e15c2c1bedfa /org/ow2/asm/asm-parent/5.2/asm-parent-5.2.pom
347a7a9400f9964e87c91d3980e48eebdc8d024bc3b36f7f22189c662853a51c /org/ow2/asm/asm-tree/5.0.3/asm-tree-5.0.3.jar
65819ca7c5a218ff49f8ebe72f3b39219c81f137d017acc1aec15b1054cf5236 /org/ow2/asm/asm-tree/5.0.3/asm-tree-5.0.3.pom
51215c67d2c068d8b7d2f6f80f51372a098075deccc448d4bdd7b987ba8328fb /org/ow2/ow2/1.3/ow2-1.3.pom
fcb8d5745f776567f1cce332282750b1653568324621ecef03288c8a25919d0e /org/projectlombok/lombok/1.16.4/lombok-1.16.4.pom
e0a471be03e1e6b02bf019480cec7a3ac9801702bf7bf62f15d077ad4df8dd5d /org/projectlombok/lombok/1.16.6/lombok-1.16.6.jar
32ac0a2363ccc0c5086b62cfc05e28a355b74e155efef6b426f5498a0dfc9e4c /org/projectlombok/lombok/1.16.6/lombok-1.16.6.pom
19495ce701fd9ba3c499c137e3ad5364acee8f87a01ef99e912f995a23fd4cb1 /org/scala-lang/modules/scala-parser-combinators_2.11/1.0.1/scala-parser-combinators_2.11-1.0.1.jar
4da632931d9182b1033ddc01a240a18ce9d5704534f52faa515d43119fa6d49f /org/scala-lang/modules/scala-parser-combinators_2.11/1.0.1/scala-parser-combinators_2.11-1.0.1.pom
4a7c757d4d87dd37382bd777ad611b5875748aef148277cf25bb39eebb496d07 /org/scala-lang/modules/scala-swing_2.11/1.0.1/scala-swing_2.11-1.0.1.jar
5201b071fbf92d388940ec1d12cba89baec25dc7b402b1e26110e1f4261b0f2b /org/scala-lang/modules/scala-swing_2.11/1.0.1/scala-swing_2.11-1.0.1.pom
13c0d8d442bde14b73af3ed60e8d53452f9e1ad62ffbe3d944cb918df652db6f /org/scala-lang/modules/scala-xml_2.11/1.0.2/scala-xml_2.11-1.0.2.jar
44b8a07ac6ae1cbc11bba1c03eb90bcf4a707c562eb51e9d56028914a99ab112 /org/scala-lang/modules/scala-xml_2.11/1.0.2/scala-xml_2.11-1.0.2.pom
8dd0a4941f4564117cc991734ca36aa53dff6bb0be329f39eab46d8819f60d1a /org/scala-lang/plugins/scala-continuations-library_2.11/1.0.2/scala-continuations-library_2.11-1.0.2.jar
e8e084c66182fbb88dae252a0c3dba24f8735609d8264feaed1be69915724e85 /org/scala-lang/plugins/scala-continuations-library_2.11/1.0.2/scala-continuations-library_2.11-1.0.2.pom
79329971a31ede7b6823f21a6ab765506b4093d9276debdc9dbe17b996884f2b /org/scala-lang/plugins/scala-continuations-plugin_2.11.1/1.0.2/scala-continuations-plugin_2.11.1-1.0.2.jar
d6b98448db39957d4a5ab49d1d9355889c1b7ef1e4e371e77889da1f66f59c60 /org/scala-lang/plugins/scala-continuations-plugin_2.11.1/1.0.2/scala-continuations-plugin_2.11.1-1.0.2.pom
fa33c031c291ef618e33398aa193ddf4d4c6859d805c9fb3cd4b7c4fbc9acbc6 /org/scala-lang/scala-actors/2.11.0/scala-actors-2.11.0.jar
42665fa39eeb8960adb74dd51fdb239c34e45eacd4b74dc88074d518b7ecfc26 /org/scala-lang/scala-actors/2.11.0/scala-actors-2.11.0.pom
b89d0beb76df20c7b2c2bee59ba53b802cc48566bc3e89ac96ce6361c5c2ee38 /org/scala-lang/scala-actors-migration_2.11/1.1.0/scala-actors-migration_2.11-1.1.0.jar
cd1a673205be12880e73c9c11234d809a901c024a256f4f4c7ae59b0a7aecc75 /org/scala-lang/scala-actors-migration_2.11/1.1.0/scala-actors-migration_2.11-1.1.0.pom
3aa616f5c56d2052fc5e3231f3e8cf1736f876caff0142a66096fc5b4dc87ae5 /org/scala-lang/scala-compiler/2.11.1/scala-compiler-2.11.1.jar
abe89207b0bfcbcf164c820cbba2c962ab5e9f3a0d0f37d81bde4f6c293a874b /org/scala-lang/scala-compiler/2.11.1/scala-compiler-2.11.1.pom
088bcb80f71b6e6a2a31d2fe7288c1fd64f19663ce281b924cdfab3fb105f4f3 /org/scala-lang/scala-library/2.11.1/scala-library-2.11.1.jar
3268a48dc36c664e7f4bd5d88b366bf098a13f7b6e8b87611e3a4413b72860d4 /org/scala-lang/scala-library/2.11.1/scala-library-2.11.1.pom
41938d1e89670979dd783102777a8b879999f4fb00a5b811b51c105b02a9d4f8 /org/scala-lang/scala-reflect/2.11.1/scala-reflect-2.11.1.jar
8b58df7e9e5f2f4f7d2f0dc24353f356abe965337e48504cec36a344e6294757 /org/scala-lang/scala-reflect/2.11.1/scala-reflect-2.11.1.pom
719fe091fd3fe4c6a7b8f69c8714935138b85a2b6145068a1ccfdb57d2e500d1 /org/sonatype/aether/aether/1.13.1/aether-1.13.1.pom
ae8dc80232771f8913febfa410c5719e9ba8ded81fb99788e214fd676dbbe13f /org/sonatype/aether/aether-api/1.13.1/aether-api-1.13.1.jar
9a58a1ddbbbe5b635674a958ac9d95d4ffaba7a40b9f800cde2cdf4986c3ef2a /org/sonatype/aether/aether-api/1.13.1/aether-api-1.13.1.pom
865511994805827e88f327944a089142bb7f3d88cde271ba3dceb732cb137a93 /org/sonatype/aether/aether-impl/1.13.1/aether-impl-1.13.1.jar
5d85a54716b6c6fc043895b129c3c76a2b9ca922c3bd79158ef08b7960aaf330 /org/sonatype/aether/aether-impl/1.13.1/aether-impl-1.13.1.pom
d5de4e299be5a79feb1dbe8ff3814034c6e44314b4c00b92ffa8d97576ded5b3 /org/sonatype/aether/aether-spi/1.13.1/aether-spi-1.13.1.jar
3d0c466fe8af3983356991ca7ff01a802920e04f946675d920420e154c5edec2 /org/sonatype/aether/aether-spi/1.13.1/aether-spi-1.13.1.pom
687799a0ce988bee9e8eb9ae0ba870300adc0114248ad4a4327bdb625d27e010 /org/sonatype/aether/aether-util/1.13.1/aether-util-1.13.1.jar
abd5e7869aa58f720d8c7301004334449351ad297aeb6ba2ebabf9b38503267b /org/sonatype/aether/aether-util/1.13.1/aether-util-1.13.1.pom
c14fb9c32b59cc03251f609416db7c0cff01f811edcccb4f6a865d6e7046bd0b /org/sonatype/forge/forge-parent/10/forge-parent-10.pom
03263b68791fb11e7464ffcc2c3de7eaeae235de8c94827ce6407e0454d2aae9 /org/sonatype/forge/forge-parent/3/forge-parent-3.pom
1838d132479005b4b7459b798e9d9915515090c288082fdcd86db0b10983a24c /org/sonatype/forge/forge-parent/4/forge-parent-4.pom
e56188aa8ce51278006aa90bc7e0f304a81e2f1219f462e7d21f262535cd2795 /org/sonatype/forge/forge-parent/5/forge-parent-5.pom
1678d4120a585d8a630131aeec4c524d928398583b7eab616ee7d5a87f520d3d /org/sonatype/oss/oss-parent/5/oss-parent-5.pom
b4306d13e8f5392458a1b30866f1cff161b3d2e6999a88d059eea3932c8a8499 /org/sonatype/oss/oss-parent/6/oss-parent-6.pom
b51f8867c92b6a722499557fc3a1fdea77bdf9ef574722fe90ce436a29559454 /org/sonatype/oss/oss-parent/7/oss-parent-7.pom
fb40265f982548212ff82e362e59732b2187ec6f0d80182885c14ef1f982827a /org/sonatype/oss/oss-parent/9/oss-parent-9.pom
5a15fdba22669e0fdd06e10dcce6320879e1f7398fbc910cd0677b50672a78c4 /org/sonatype/plexus/plexus-cipher/1.4/plexus-cipher-1.4.jar
a63a2e23988cca7fac6c93886d6f0506fd26d88d7e8cc0cb89b9c6e0d6c994ad /org/sonatype/plexus/plexus-cipher/1.4/plexus-cipher-1.4.pom
3b0559bb8432f28937efe6ca193ef54a8506d0075d73fd7406b9b116c6a11063 /org/sonatype/plexus/plexus-sec-dispatcher/1.3/plexus-sec-dispatcher-1.3.jar
d5e650c50ef6958c028ed024b59af04cf3d38e1453a77d542b6b484bc0f4ca0b /org/sonatype/plexus/plexus-sec-dispatcher/1.3/plexus-sec-dispatcher-1.3.pom
a966df5e36d54a9d9690db81c459806252b924da949a42b538eba5683d6267db /org/sonatype/sisu/inject/containers/2.3.0/containers-2.3.0.pom
cfc3507491767609fb2da36dcf32ebb0055b8bd32a2af182c021df9ecce26a76 /org/sonatype/sisu/inject/guava-parent/0.9.9/guava-parent-0.9.9.pom
852f10c4ba2210c29f75d330dc81f406ab8db5cb46430c5ba4082f9c13df180d /org/sonatype/sisu/inject/guice-bean/2.3.0/guice-bean-2.3.0.pom
6c1be769d69337f1a8cc2d7e756f94b8bdc02a76c3087545aad1e374ac4bd0ce /org/sonatype/sisu/inject/guice-parent/3.1.0/guice-parent-3.1.0.pom
9188fe7eb026bf4c35309f685ea7cf14cb2ebd7c7d49572486f5a97d4b312a03 /org/sonatype/sisu/inject/guice-plexus/2.3.0/guice-plexus-2.3.0.pom
9897e80ff6c08fc45b5b5ebd81d9e943a1087bdf0ad50cda457d616abbdaacd9 /org/sonatype/sisu/sisu-guava/0.9.9/sisu-guava-0.9.9.jar
2c007ed1e50e0edc62f8e3cdf725e1f61068206bc955aec48f3eb13a3467c6e5 /org/sonatype/sisu/sisu-guava/0.9.9/sisu-guava-0.9.9.pom
4b76079f35407e5682aac1ecbe67afd5f430ae619044a9d6a413666a45750c25 /org/sonatype/sisu/sisu-guice/3.1.0/sisu-guice-3.1.0-no_aop.jar
28a7c38bd751e9e2a9f8d13ddf876266f90f9d6e29c9178b524828afbc5e45f4 /org/sonatype/sisu/sisu-guice/3.1.0/sisu-guice-3.1.0.pom
4b112cc2452aee6930dff95512f05041e4c66a2df0a828e95f8439c23a8759e9 /org/sonatype/sisu/sisu-inject/2.3.0/sisu-inject-2.3.0.pom
75819b29737c2bee1bfbda1011d455c7036738e0ef32ffbf85ba1d8fa157ceb2 /org/sonatype/sisu/sisu-inject-bean/2.3.0/sisu-inject-bean-2.3.0.jar
f41fc69095282c2c332cf3d9f27a2f3b2d87cd22fcb6511df59fffd90a977ec0 /org/sonatype/sisu/sisu-inject-bean/2.3.0/sisu-inject-bean-2.3.0.pom
bf9083fb846993689409b2bdbc735048e53bac6cc32707cde7ef84817b6e9365 /org/sonatype/sisu/sisu-inject-plexus/2.3.0/sisu-inject-plexus-2.3.0.jar
34feae95889f78e7d4260167736e6af444296fbc5f3794b8c1b90eb6332c4714 /org/sonatype/sisu/sisu-inject-plexus/2.3.0/sisu-inject-plexus-2.3.0.pom
aef1fd28efd25bd778aa3d3770c6f9e606ca2354149e985f1d63fc7c6a366bd2 /org/sonatype/sisu/sisu-parent/2.3.0/sisu-parent-2.3.0.pom
02161ae46462da669b1d7be3f9b64687c6347f84d04c890fa467eff6def0ae10 /org/sonatype/spice/model-builder/1.3/model-builder-1.3.jar
0d2cc363cdfc6c102203adb6a5c138c195eaf1198527a09e6a17aa0227a66bcd /org/sonatype/spice/model-builder/1.3/model-builder-1.3.pom
683c012c6bf5e1e31b232b3755c027ccd829692a09c8216652b414b09d4ae623 /org/sonatype/spice/spice-parent/10/spice-parent-10.pom
21a19b26dbe5c38ddb5114cf4eadbf5ccb411bc6b128fdd5949b1ccb12f3683e /org/sonatype/spice/spice-parent/12/spice-parent-12.pom
258f43b5e805687302a5bb400856b972a573ec42a44f949641354a84b9243758 /org/sonatype/spice/spice-parent/16/spice-parent-16.pom
27901e5d4d60d3502571d5e6358fc89e3fcf874138b69d495d139bcc3e169404 /oshi-project/oshi-core/1.1/oshi-core-1.1.jar
e7e154dd64e5bd87e6ae2652ab52ab88eb53d05606466faee382d11f59d0ab71 /oshi-project/oshi-core/1.1/oshi-core-1.1.pom
d1968436fc216c901fb9b82c7e878b50fd1d30091676da95b2edd3a9c0ccf92e /stax/stax-api/1.0.1/stax-api-1.0.1.jar
87b13ae136a2bb9299271a0dfe8c351f76661b654ed8fde035c2cabb198cf259 /stax/stax-api/1.0.1/stax-api-1.0.1.pom
ad68a86cfd0255a2bc0525ce11ec49640caea7e34ff91eb89c3193dcccd77f05 /trove/trove/1.0.2/trove-1.0.2.jar
83f2682bd3ded1fe417b7e98e7ac86510cd747378eae7e3a5d1d35c7c7f0d2ea /trove/trove/1.0.2/trove-1.0.2.pom
3b90f9f7ad968b9588482e3a09b6e7d0d81c6cf7c214c5cecd8120e3ee509ae9 /tv/twitch/twitch/6.5/twitch-6.5.jar
56820ae80518871ff0af04dbfa54e311f6fa54de922d201f71bd2d3f210e94ba /tv/twitch/twitch/6.5/twitch-6.5.pom
0825d6081eef7e57434cd15525d6c1e7bc5d590e08eaea5b7516820031978af9 /tv/twitch/twitch-external-platform/4.5/twitch-external-platform-4.5-natives-windows-32.jar
6428eb438f53afc563d58c7f2a563ca9fcaae80db3520af744de5e5db1c9df6a /tv/twitch/twitch-external-platform/4.5/twitch-external-platform-4.5-natives-windows-64.jar
5ac03ac36144e4aeeb57b8ccc968b1ed75ae4b9ed4b094f47cb2b7b64c23a67d /tv/twitch/twitch-external-platform/4.5/twitch-external-platform-4.5.pom
4005b7d20bc7e8c37cb0fd94bb7c44b5a6373846f3cb59e7a0095f6ebdf3e4f3 /tv/twitch/twitch-platform/6.5/twitch-platform-6.5-natives-osx.jar
8315b4943f4e1356c34b213d4f309784d5e36cbded1fb37c49efcc7d22c909cb /tv/twitch/twitch-platform/6.5/twitch-platform-6.5-natives-windows-32.jar
75337e7362e489a6f8c9712aeced9e131e82a3ce851cafbd4d03fda284cc7116 /tv/twitch/twitch-platform/6.5/twitch-platform-6.5-natives-windows-64.jar
3b5636dae28488379b110bd87a769497af8227518c273e62110cfd638f9fdcb6 /tv/twitch/twitch-platform/6.5/twitch-platform-6.5.pom
* /versions.json
