{
  "required": true,
  "package": "com.replaymod.render.mixin",
  "mixins": [],
  "server": [],
  "client": [
    "MixinEffectRenderer",
    "MixinFrustum",
    "MixinRender",
    "MixinRendererLivingEntity",
    "MixinRenderGlobal",
    "MixinRenderManager"
  ],
  "compatibilityLevel": "JAVA_8",
  "minVersion": "0.6.11",
  "refmap": "mixins.replaymod.refmap.json"
}