{
  "required": true,
  "package": "com.replaymod.recording.mixin",
  "mixins": [],
  "server": [],
  "client": [
    "MixinNetHandlerLoginClient",
    "MixinNetHandlerPlayClient",
    "MixinRenderGlobal"
  ],
  "compatibilityLevel": "JAVA_8",
  "minVersion": "0.6.11",
  "refmap": "mixins.replaymod.refmap.json"
}